{
    "CharacterName": "Lily Bloomerchen",
    "CharacterWikiURL": "https://wiki.soulworkerhq.com/w/Lily_Bloomerchen",
    "Skills": {
        "EvilSlash": {
            "Name": "Evil Slash",
            "DefaultLevel": 1,
            "ID": 1,
            "Icon": "../skillicons/L1-1.png",
            "Levels": {
                "0": {
                    "Description": "Quickly rotate the scythe, pushes out the enemy at the end of the blow.",
                    "Effect": "",
                    "RequiredLevel": 0,
                    "RequiredSP": 0
                },
                "1": {
                    "Effect": "Damage: 182%\nSA Damage: 196%\nSG Cost: 30\nCooldown: 10s",
                    "RequiredLevel": 0,
                    "RequiredSP": 0
                },
                "2": {
                    "Effect": "Damage: 191%\nSA Damage: 206%\nSG Cost: 30\nCooldown: 10s",
                    "RequiredLevel": 4,
                    "RequiredSP": 1
                },
                "3": {
                    "Effect": "Damage: 214%\nSA Damage: 230%\nSG Cost: 30\nCooldown: 10s",
                    "RequiredLevel": 7,
                    "RequiredSP": 2
                },
                "4": {
                    "Effect": "Damage: 237%\nSA Damage: 255%\nSG Cost: 30\nCooldown: 10s",
                    "RequiredLevel": 10,
                    "RequiredSP": 2
                },
                "5": {
                    "Effect": "Damage: 273%\nSA Damage: 294%\nSG Cost: 30\nCooldown: 10s",
                    "RequiredLevel": 13,
                    "RequiredSP": 3
                }
            },
            "Extensions": [
                "EvilSlash-Kusarigama"
            ]
        },
        "SpinningDevil": {
            "Name": "Spinning Devil",
            "DefaultLevel": 1,
            "ID": 2,
            "Icon": "../skillicons/L1-2.png",
            "Levels": {
                "0": {
                    "Description": "Quickly dash forward, using the speed perform a spinning slash.",
                    "Effect": "",
                    "RequiredLevel": 0,
                    "RequiredSP": 0
                },
                "1": {
                    "Effect": "",
                    "RequiredLevel": 0,
                    "RequiredSP": 0
                },
                "2": {
                    "Effect": "",
                    "RequiredLevel": 6,
                    "RequiredSP": 1
                },
                "3": {
                    "Effect": "",
                    "RequiredLevel": 11,
                    "RequiredSP": 2
                },
                "4": {
                    "Effect": "",
                    "RequiredLevel": 16,
                    "RequiredSP": 2
                },
                "5": {
                    "Effect": "",
                    "RequiredLevel": 21,
                    "RequiredSP": 3
                }
            }
        },
        "ScytheCutter": {
            "Name": "Scythe Cutter",
            "DefaultLevel": 1,
            "ID": 3,
            "Icon": "../skillicons/L1-3.png",
            "Levels": {
                "0": {
                    "Description": "Swiftly raise the scythe. Enemies will be launched in the air.",
                    "RequiredLevel": 0,
                    "RequiredSP": 0
                },
                "1": {
                    "Effect": "",
                    "RequiredLevel": 0,
                    "RequiredSP": 0
                },
                "2": {
                    "Effect": "",
                    "RequiredLevel": 5,
                    "RequiredSP": 1
                },
                "3": {
                    "Effect": "",
                    "RequiredLevel": 9,
                    "RequiredSP": 2
                },
                "4": {
                    "Effect": "",
                    "RequiredLevel": 13,
                    "RequiredSP": 2
                },
                "5": {
                    "Effect": "",
                    "RequiredLevel": 17,
                    "RequiredSP": 3
                }
            },
            "Extensions": [
                "ScytheCutter-ChargeAttack"
            ]
        },
        "ScytheCutter-ChargeAttack": {
            "Visible": false,
            "Name": "Charge Attack",
            "ID": 4,
            "Icon": "../skillicons/L1-3A.png",
            "Levels": {
                "0": {
                    "Description": "If charged, it launches the enemy higher.",
                    "Effect": "",
                    "RequiredLevel": 0,
                    "RequiredSP": 0
                },
                "1": {
                    "Effect": "",
                    "RequiredLevel": 17,
                    "RequiredSP": 1
                }
            }
        },
        "GrimCountdown": {
            "Name": "Grim Countdown",
            "ID": 5,
            "Icon": "../skillicons/L1-4.png",
            "Levels": {
                "0": {
                    "Description": "After doing a rotation slash, cut the front enemies alongside the summoned Grim Reaper.",
                    "RequiredLevel": 0,
                    "RequiredSP": 0
                },
                "1": {
                    "Effect": "",
                    "RequiredLevel": 4,
                    "RequiredSP": 1
                },
                "2": {
                    "Effect": "",
                    "RequiredLevel": 8,
                    "RequiredSP": 1
                },
                "3": {
                    "Effect": "",
                    "RequiredLevel": 12,
                    "RequiredSP": 2
                },
                "4": {
                    "Effect": "",
                    "RequiredLevel": 16,
                    "RequiredSP": 2
                },
                "5": {
                    "Effect": "",
                    "RequiredLevel": 20,
                    "RequiredSP": 3
                }
            },
            "Extensions": [
                "GrimCountdown-Lifesteal"
            ]
        },
        "GrimCountdown-Lifesteal": {
            "Visible": false,
            "Name": "Lifesteal",
            "ID": 6,
            "Icon": "../skillicons/L1-4A.png",
            "Levels": {
                "0": {
                    "Description": "Steal HP from the afflicted enemies, and heals HP of oneself.",
                    "Effect": "",
                    "RequiredLevel": 0,
                    "RequiredSP": 0
                },
                "1": {
                    "Effect": "",
                    "RequiredLevel": 20,
                    "RequiredSP": 1
                },
                "2": {
                    "Effect": "",
                    "RequiredLevel": 25,
                    "RequiredSP": 1
                },
                "3": {
                    "Effect": "",
                    "RequiredLevel": 30,
                    "RequiredSP": 2
                }
            }
        },
        "FearChain": {
            "Name": "Fear Chain",
            "ID": 7,
            "Icon": "../skillicons/L1-5.png",
            "Levels": {
                "0": {
                    "Description": "Summons the Grim Reaper in front, the Grim Reaper connects the enemies with a chain, they are drawn towards the center of the attack range.",
                    "RequiredLevel": 0,
                    "RequiredSP": 0
                },
                "1": {
                    "Effect": "",
                    "RequiredLevel": 6,
                    "RequiredSP": 1
                },
                "2": {
                    "Effect": "",
                    "RequiredLevel": 10,
                    "RequiredSP": 1
                },
                "3": {
                    "Effect": "",
                    "RequiredLevel": 14,
                    "RequiredSP": 2
                },
                "4": {
                    "Effect": "",
                    "RequiredLevel": 18,
                    "RequiredSP": 2
                },
                "5": {
                    "Effect": "",
                    "RequiredLevel": 22,
                    "RequiredSP": 3
                }
            },
            "Extensions": [
                "FearChain-RangeIncrease"
            ]
        },
        "FearChain-RangeIncrease": {
            "Visible": false,
            "Name": "Range Increase",
            "ID": 8,
            "Icon": "../skillicons/L1-5A.png",
            "Levels": {
                "0": {
                    "Description": "Increase the attack range.",
                    "Effect": "",
                    "RequiredLevel": 0,
                    "RequiredSP": 0
                },
                "1": {
                    "Effect": "",
                    "RequiredLevel": 22,
                    "RequiredSP": 1
                },
                "2": {
                    "Effect": "",
                    "RequiredLevel": 27,
                    "RequiredSP": 1
                },
                "3": {
                    "Effect": "",
                    "RequiredLevel": 32,
                    "RequiredSP": 2
                }
            }
        },
        "DeathGrinder": {
            "Name": "Death Grinder",
            "ID": 9,
            "Icon": "../skillicons/L1-6.png",
            "Levels": {
                "0": {
                    "Description": "Attack by throwing the scythe like a boomerang. Attract the enemies attacked when the scythe comes back to the owner.",
                    "Effect": "",
                    "RequiredLevel": 0,
                    "RequiredSP": 0
                },
                "1": {
                    "Effect": "",
                    "RequiredLevel": 8,
                    "RequiredSP": 1
                },
                "2": {
                    "Effect": "",
                    "RequiredLevel": 12,
                    "RequiredSP": 1
                },
                "3": {
                    "Effect": "",
                    "RequiredLevel": 16,
                    "RequiredSP": 2
                },
                "4": {
                    "Effect": "",
                    "RequiredLevel": 20,
                    "RequiredSP": 2
                },
                "5": {
                    "Effect": "",
                    "RequiredLevel": 24,
                    "RequiredSP": 3
                }
            },
            "Extensions": [
                "DeathGrinder-SummonGrimReaper",
                "DeathGrinder-Whirlwind"
            ]
        },
        "DeathGrinder-SummonGrimReaper": {
            "Visible": false,
            "Name": "Summon Grim Reaper",
            "ID": 10,
            "Icon": "../skillicons/L1-6A.png",
            "Levels": {
                "0": {
                    "Description": "Throw the scythe and summon the Grim Reaper.",
                    "Effect": "",
                    "RequiredLevel": 0,
                    "RequiredSP": 0
                },
                "1": {
                    "Effect": "",
                    "RequiredLevel": 24,
                    "RequiredSP": 1
                },
                "2": {
                    "Effect": "",
                    "RequiredLevel": 29,
                    "RequiredSP": 1
                },
                "3": {
                    "Effect": "",
                    "RequiredLevel": 34,
                    "RequiredSP": 2
                }
            }
        },
        "DeathGrinder-Whirlwind": {
            "Visible": false,
            "Name": "Whirlwind",
            "ID": 11,
            "Icon": "../skillicons/L1-6B.png",
            "Levels": {
                "0": {
                    "Description": "Create a whirlwind by throwing the scythe forward. Scythe will stop at a point and damage the enemies at the place.",
                    "Effect": "",
                    "RequiredLevel": 0,
                    "RequiredSP": 0
                },
                "1": {
                    "Effect": "",
                    "RequiredLevel": 24,
                    "RequiredSP": 1
                },
                "2": {
                    "Effect": "",
                    "RequiredLevel": 29,
                    "RequiredSP": 1
                },
                "3": {
                    "Effect": "",
                    "RequiredLevel": 34,
                    "RequiredSP": 2
                }
            }
        },
        "DeathScythe": {
            "Name": "Death Scythe",
            "ID": 12,
            "Icon": "../skillicons/L1-7.png",
            "Levels": {
                "0": {
                    "Description": "Grim Reaper appears, it attracts the enemies around. After the Grim Reaper attacks, the last attack is changed by the next command.",
                    "Effect": "",
                    "RequiredLevel": 0,
                    "RequiredSP": 0
                },
                "1": {
                    "Effect": "",
                    "RequiredLevel": 10,
                    "RequiredSP": 1
                },
                "2": {
                    "Effect": "",
                    "RequiredLevel": 15,
                    "RequiredSP": 1
                },
                "3": {
                    "Effect": "",
                    "RequiredLevel": 20,
                    "RequiredSP": 2
                },
                "4": {
                    "Effect": "",
                    "RequiredLevel": 25,
                    "RequiredSP": 2
                },
                "5": {
                    "Effect": "",
                    "RequiredLevel": 30,
                    "RequiredSP": 3
                }
            },
            "Extensions": [
                "DeathScythe-Afterimage"
            ]
        },
        "CruelSlash": {
            "Name": "Cruel Slash",
            "ID": 13,
            "Icon": "../skillicons/L1-8.png",
            "Levels": {
                "0": {
                    "Description": "Deform the sickle to the scimitar form to attack. LMB to quickly perform repeated attacks on the spot for a period of time.",
                    "Effect": "",
                    "RequiredLevel": 0,
                    "RequiredSP": 0
                },
                "1": {
                    "Effect": "",
                    "RequiredLevel": 13,
                    "RequiredSP": 1
                },
                "2": {
                    "Effect": "",
                    "RequiredLevel": 18,
                    "RequiredSP": 1
                },
                "3": {
                    "Effect": "",
                    "RequiredLevel": 23,
                    "RequiredSP": 2
                },
                "4": {
                    "Effect": "",
                    "RequiredLevel": 28,
                    "RequiredSP": 2
                },
                "5": {
                    "Effect": "",
                    "RequiredLevel": 33,
                    "RequiredSP": 3
                }
            },
            "Extensions": [
                "CruelSlash-DefensePenetration",
                "CruelSlash-CriticalRateIncrease"
            ]
        },
        "CruelSlash-DefensePenetration": {
            "Visible": false,
            "Name": "Defense Penetration",
            "ID": 14,
            "Icon": "../skillicons/L1-8A.png",
            "Levels": {
                "0": {
                    "Description": "Attacks done to the enemy ignore enemy's defense",
                    "Effect": "",
                    "RequiredLevel": 0,
                    "RequiredSP": 0
                },
                "1": {
                    "Effect": "",
                    "RequiredLevel": 33,
                    "RequiredSP": 1
                },
                "2": {
                    "Effect": "",
                    "RequiredLevel": 38,
                    "RequiredSP": 1
                },
                "3": {
                    "Effect": "",
                    "RequiredLevel": 43,
                    "RequiredSP": 2
                }
            }
        },
        "CruelSlash-CriticalRateIncrease": {
            "Visible": false,
            "Name": "Critical Rate Increase",
            "ID": 15,
            "Icon": "../skillicons/L1-8B.png",
            "Levels": {
                "0": {
                    "Description": "Increases Critical Rate",
                    "Effect": "",
                    "RequiredLevel": 0,
                    "RequiredSP": 0
                },
                "1": {
                    "Effect": "",
                    "RequiredLevel": 33,
                    "RequiredSP": 1
                },
                "2": {
                    "Effect": "",
                    "RequiredLevel": 38,
                    "RequiredSP": 1
                },
                "3": {
                    "Effect": "",
                    "RequiredLevel": 43,
                    "RequiredSP": 2
                }
            }
        },
        "GrimReaper": {
            "Name": "Grim Reaper",
            "ID": 16,
            "Icon": "../skillicons/L1-9.png",
            "Assignable": false,
            "Levels": {
                "0": {
                    "Description": "Only available in the air. Summons the Grim Reaper, launching the enemies in the air. It will attack the enemies in the air.",
                    "Effect": "",
                    "RequiredLevel": 0,
                    "RequiredSP": 0
                },
                "1": {
                    "Effect": "",
                    "RequiredLevel": 17,
                    "RequiredSP": 1
                },
                "2": {
                    "Effect": "",
                    "RequiredLevel": 22,
                    "RequiredSP": 1
                },
                "3": {
                    "Effect": "",
                    "RequiredLevel": 27,
                    "RequiredSP": 2
                },
                "4": {
                    "Effect": "",
                    "RequiredLevel": 32,
                    "RequiredSP": 2
                },
                "5": {
                    "Effect": "",
                    "RequiredLevel": 37,
                    "RequiredSP": 3
                }
            }
        },
        "ForceRegion": {
            "Name": "Force Region",
            "ID": 17,
            "Icon": "../skillicons/L1-10.png",
            "Levels": {
                "0": {
                    "Description": "The summoned Grim Reaper's roar will grant a buff that increases critical rate to the party members in range, including self.",
                    "Effect": "",
                    "RequiredLevel": 0,
                    "RequiredSP": 0
                },
                "1": {
                    "Effect": "",
                    "RequiredLevel": 21,
                    "RequiredSP": 1
                },
                "2": {
                    "Effect": "",
                    "RequiredLevel": 26,
                    "RequiredSP": 1
                },
                "3": {
                    "Effect": "",
                    "RequiredLevel": 31,
                    "RequiredSP": 2
                },
                "4": {
                    "Effect": "",
                    "RequiredLevel": 36,
                    "RequiredSP": 2
                },
                "5": {
                    "Effect": "",
                    "RequiredLevel": 41,
                    "RequiredSP": 3
                }
            }
        },
        "DeathTornado": {
            "Name": "Death Tornado",
            "ID": 18,
            "Icon": "../skillicons/L1-11.png",
            "Levels": {
                "0": {
                    "Description": "It creates a powerful tornado to attack the enemies in front.",
                    "Effect": "",
                    "RequiredLevel": 0,
                    "RequiredSP": 0
                },
                "1": {
                    "Effect": "",
                    "RequiredLevel": 28,
                    "RequiredSP": 1
                },
                "2": {
                    "Effect": "",
                    "RequiredLevel": 32,
                    "RequiredSP": 1
                },
                "3": {
                    "Effect": "",
                    "RequiredLevel": 36,
                    "RequiredSP": 2
                },
                "4": {
                    "Effect": "",
                    "RequiredLevel": 40,
                    "RequiredSP": 2
                },
                "5": {
                    "Effect": "",
                    "RequiredLevel": 44,
                    "RequiredSP": 3
                }
            },
            "Extensions": [
                "DeathTornado-Induction",
                "DeathTornado-AreaWidener"
            ]
        },
        "DeathTornado-Induction": {
            "Visible": false,
            "Name": "Induction",
            "ID": 19,
            "Icon": "../skillicons/L1-11A.png",
            "Levels": {
                "0": {
                    "Description": "Summons a tornado that moves towards the enemy",
                    "Effect": "",
                    "RequiredLevel": 0,
                    "RequiredSP": 0
                },
                "1": {
                    "Effect": "",
                    "RequiredLevel": 44,
                    "RequiredSP": 1
                },
                "2": {
                    "Effect": "",
                    "RequiredLevel": 49,
                    "RequiredSP": 1
                },
                "3": {
                    "Effect": "",
                    "RequiredLevel": 54,
                    "RequiredSP": 2
                }
            }
        },
        "DeathTornado-AreaWidener": {
            "Visible": false,
            "Name": "Area Widener",
            "ID": 20,
            "Icon": "../skillicons/L1-11B.png",
            "Levels": {
                "0": {
                    "Description": "Tornado moves towards the front.",
                    "Effect": "",
                    "RequiredLevel": 0,
                    "RequiredSP": 0
                },
                "1": {
                    "Effect": "",
                    "RequiredLevel": 44,
                    "RequiredSP": 1
                },
                "2": {
                    "Effect": "",
                    "RequiredLevel": 49,
                    "RequiredSP": 1
                },
                "3": {
                    "Effect": "",
                    "RequiredLevel": 54,
                    "RequiredSP": 2
                }
            }
        },
        "EvilTrinity": {
            "Name": "Evil Trinity",
            "ID": 21,
            "Icon": "../skillicons/L1-12.png",
            "Levels": {
                "0": {
                    "Description": "The Grim Reaper with two scythes appears, swinging them along with Lily. The ground smash creates three shock waves that will hit the enemies in the range.",
                    "Effect": "",
                    "RequiredLevel": 0,
                    "RequiredSP": 0
                },
                "1": {
                    "Effect": "",
                    "RequiredLevel": 34,
                    "RequiredSP": 1
                },
                "2": {
                    "Effect": "",
                    "RequiredLevel": 38,
                    "RequiredSP": 1
                },
                "3": {
                    "Effect": "",
                    "RequiredLevel": 42,
                    "RequiredSP": 2
                },
                "4": {
                    "Effect": "",
                    "RequiredLevel": 46,
                    "RequiredSP": 2
                },
                "5": {
                    "Effect": "",
                    "RequiredLevel": 50,
                    "RequiredSP": 3
                }
            }
        },
        "DeathGuillotine": {
            "Name": "Death Guillotine",
            "ID": 22,
            "Icon": "../skillicons/L1-13.png",
            "Levels": {
                "0": {
                    "Description": "Surrounds and restraints the enemies with chains, pushing them under a summoning gigantic guillotine.",
                    "Effect": "",
                    "RequiredLevel": 0,
                    "RequiredSP": 0
                },
                "1": {
                    "Effect": "",
                    "RequiredLevel": 42,
                    "RequiredSP": 1
                },
                "2": {
                    "Effect": "",
                    "RequiredLevel": 45,
                    "RequiredSP": 1
                },
                "3": {
                    "Effect": "",
                    "RequiredLevel": 48,
                    "RequiredSP": 2
                },
                "4": {
                    "Effect": "",
                    "RequiredLevel": 51,
                    "RequiredSP": 2
                },
                "5": {
                    "Effect": "",
                    "RequiredLevel": 54,
                    "RequiredSP": 3
                }
            }
        },
        "EvilSlash-Kusarigama": {
            "Visible": false,
            "Name": "Sickle and Chain",
            "ID": 23,
            "Icon": "../skillicons/Icon_Mcythe_Skill_EvilSlash_A.png",
            "Levels": {
                "0": {
                    "Description": "\u938C\u306E\u4EE3\u308F\u308A\u306B\u9396\u938C\u3092\u5229\u7528\u3057\u3066\u3001\u3088\u308A\u5E83\u3044\u7BC4\u56F2\u306E\u6575\u3092\u653B\u6483\u3057\u307E\u3059\u3002",
                    "Effect": "",
                    "RequiredLevel": 0,
                    "RequiredSP": 0
                },
                "1": {
                    "Effect": "Damage: 384%\nSA Damage: 304%",
                    "RequiredLevel": 57,
                    "RequiredSP": 1
                },
                "2": {
                    "Effect": "Damage: 423%\nSA Damage: 335%",
                    "RequiredLevel": 58,
                    "RequiredSP": 1
                },
                "3": {
                    "Effect": "Damage: 498%\nSA Damage: 394%",
                    "RequiredLevel": 60,
                    "RequiredSP": 2
                }
            }
        },
        "DeathScythe-Afterimage": {
            "Visible": false,
            "Name": "Afterimage",
            "ID": 24,
            "Icon": "../skillicons/Icon_Mcythe_Skill_DeathScythe_A.png",
            "Levels": {
                "0": {
                    "Description": "The afterimage of the death god rushes towards the enemy and attacks according to the attack action of Lily.",
                    "Effect": "",
                    "RequiredLevel": 0,
                    "RequiredSP": 0
                },
                "1": {
                    "Effect": "Damage: 628%\nSA Damage: 1168%",
                    "RequiredLevel": 57,
                    "RequiredSP": 1
                },
                "2": {
                    "Effect": "Damage: 710%\nSA Damage: 1198%",
                    "RequiredLevel": 59,
                    "RequiredSP": 1
                },
                "3": {
                    "Effect": "Damage: 880%\nSA Damage: 1484%",
                    "RequiredLevel": 60,
                    "RequiredSP": 2
                }
            }
        },
        "BloodyBlossom": {
            "Name": "Bloody Blossom",
            "ID": 25,
            "Icon": "../skillicons/Icon_Mcythe_Skill_BloodyBlossom.png",
            "Assignable": false,
            "Levels": {
                "0": {
                    "Description": "After attacking while swiftly rotating the scythe of both hands in the air, performing a powerful cross strike attack.",
                    "Effect": "",
                    "RequiredLevel": 0,
                    "RequiredSP": 0
                },
                "1": {
                    "Effect": "Damage: 752%\nSA Damage: 480%\nSG Cost: 30\nCooldown: 28s",
                    "RequiredLevel": 57,
                    "RequiredSP": 1
                },
                "2": {
                    "Effect": "Damage: 828%\nSA Damage: 504%\nSG Cost: 30\nCooldown: 28s",
                    "RequiredLevel": 57,
                    "RequiredSP": 1
                },
                "3": {
                    "Effect": "Damage: 927%\nSA Damage: 550%\nSG Cost: 30\nCooldown: 28s",
                    "RequiredLevel": 58,
                    "RequiredSP": 2
                },
                "4": {
                    "Effect": "Damage: 1057%\nSA Damage: 616%\nSG Cost: 30\nCooldown: 28s",
                    "RequiredLevel": 59,
                    "RequiredSP": 2
                },
                "5": {
                    "Effect": "Damage: 1247%\nSA Damage: 708%\nSG Cost: 30\nCooldown: 28s",
                    "RequiredLevel": 60,
                    "RequiredSP": 3
                }
            }
        },
        "FuryScythe": {
            "Name": "Fury Scythe",
            "ID": 26,
            "Icon": "../skillicons/Icon_Mcythe_Skill_Furymach.png",
            "Levels": {
                "0": {
                    "Description": "Joining the sickle and the scissors and do a lash rush in the front.\nIt attacks enemies and moves forward by operation.\n\n[1] Left click: Cuts forward enemies and makes short rush.\n\n[2] Right click: It moves quickly towards the front.",
                    "Effect": "",
                    "RequiredLevel": 0,
                    "RequiredSP": 0
                },
                "1": {
                    "Effect": "Damage: 2000%\nSA Damage: 2130%\nSG Cost: 55\nCooldown: 30s\n\n[Additional Attack]\nDamage: 375%\nSA Damage: 399%",
                    "RequiredLevel": 57,
                    "RequiredSP": 1
                },
                "2": {
                    "Effect": "Damage: 2200%\nSA Damage: 2236%\nSG Cost: 55\nCooldown: 30s\n\n[Additional Attack]\nDamage: 412%\nSA Damage: 419%",
                    "RequiredLevel": 57,
                    "RequiredSP": 1
                },
                "3": {
                    "Effect": "Damage: 2464%\nSA Damage: 2438%\nSG Cost: 55\nCooldown: 30s\n\n[Additional Attack]\nDamage: 462%\nSA Damage: 457%",
                    "RequiredLevel": 58,
                    "RequiredSP": 2
                },
                "4": {
                    "Effect": "Damage: 2808%\nSA Damage: 2730%\nSG Cost: 55\nCooldown: 30s\n\n[Additional Attack]\nDamage: 526%\nSA Damage: 511%",
                    "RequiredLevel": 59,
                    "RequiredSP": 2
                },
                "5": {
                    "Effect": "Damage: 3314%\nSA Damage: 3140%\nSG Cost: 55\nCooldown: 30s\n\n[Additional Attack]\nDamage: 621%\nSA Damage: 588%",
                    "RequiredLevel": 60,
                    "RequiredSP": 3
                }
            }
        },
        "BasicAttackMastery": {
            "Passive": true,
            "Name": "Basic Attack Mastery",
            "ID": 1002,
            "DefaultLevel": 1,
            "Icon": "../skillicons/Sh-1.png",
            "Levels": {
                "0": {
                    "Description": "Attack with your sword.\nAs this skill's level increases, you will be able to perform new combo attacks.\nYou will regain SG as you attack.\nSG gain will vary by enemy type",
                    "Effect": "",
                    "RequiredLevel": 0,
                    "RequiredSP": 0
                },
                "1": {
                    "Effect": "SG Gain +20%.\nUnlock alternative attack “A”",
                    "RequiredLevel": 0,
                    "RequiredSP": 0
                },
                "2": {
                    "Effect": "SG Gain +70%.\nUnlock additional basic attack",
                    "RequiredLevel": 5,
                    "RequiredSP": 1
                },
                "3": {
                    "Effect": "SG Gain +120%\nUnlock alternative attack “B”.\nUnlock alternative aerial attack",
                    "RequiredLevel": 10,
                    "RequiredSP": 2
                },
                "4": {
                    "Effect": "SG Gain +200%\nUnlock alternative attack “C”",
                    "RequiredLevel": 15,
                    "RequiredSP": 2
                },
                "5": {
                    "Effect": "",
                    "RequiredLevel": 20,
                    "RequiredSP": 2
                }
            }
        },
        "SpecialAbilityMastery": {
            "Passive": true,
            "DefaultLevel": 1,
            "ID": 1001,
            "Name": "Special Ability Mastery",
            "Icon": "../skillicons/Sh-2h.png",
            "Levels": {
                "0": {
                    "Description": "Use your power to lift the enemies up to the air.\n(Air) Quickly descend by landing and attacking with your feet.",
                    "Effect": "",
                    "RequiredLevel": 0,
                    "RequiredSP": 0
                },
                "1": {
                    "Effect": "",
                    "RequiredLevel": 0,
                    "RequiredSP": 0
                },
                "2": {
                    "Effect": "",
                    "RequiredLevel": 15,
                    "RequiredSP": 1
                },
                "3": {
                    "Effect": "",
                    "RequiredLevel": 30,
                    "RequiredSP": 2
                }
            }
        },
        "EmergencyDodge": {
            "Passive": true,
            "Name": "Emergency Dodge",
            "ID": 1004,
            "DefaultLevel": 1,
            "Icon": "../skillicons/Sh-3.png",
            "Levels": {
                "0": {
                    "Description": "Swiftly dodge in a direction. Negate damage during an emergency dodge.",
                    "Effect": "",
                    "RequiredLevel": 0,
                    "RequiredSP": 0
                },
                "1": {
                    "Effect": "Stamina Cost: 20",
                    "RequiredLevel": 0,
                    "RequiredSP": 0
                }
            }
        },
        "RisingRoll": {
            "Passive": true,
            "Name": "Rising Roll",
            "ID": 1003,
            "DefaultLevel": 1,
            "Icon": "../skillicons/Sh-4.png",
            "Levels": {
                "0": {
                    "Description": "When downed, get up by rolling in a direction. During the roll, damage is negated",
                    "Effect": "",
                    "RequiredLevel": 0,
                    "RequiredSP": 0
                },
                "1": {
                    "Effect": "Stamina Cost: 25",
                    "RequiredLevel": 0,
                    "RequiredSP": 0
                },
                "2": {
                    "Effect": "Stamina Cost: 15",
                    "RequiredLevel": 17,
                    "RequiredSP": 1
                },
                "3": {
                    "Effect": "Stamina Cost: 15\nFaster Rolling Speed",
                    "RequiredLevel": 34,
                    "RequiredSP": 2
                }
            }
        },
        "Dash": {
            "Passive": true,
            "Name": "Dash",
            "DefaultLevel": 1,
            "ID": 1006,
            "Icon": "../skillicons/Sh-5.png",
            "Levels": {
                "0": {
                    "Description": "Swiftly dash forward",
                    "Effect": "",
                    "RequiredLevel": 0,
                    "RequiredSP": 0
                },
                "1": {
                    "Effect": "",
                    "RequiredLevel": 0,
                    "RequiredSP": 0
                },
                "2": {
                    "Effect": "Faster Dashing Speed",
                    "RequiredLevel": 25,
                    "RequiredSP": 2
                }
            }
        },
        "RisingAttack": {
            "Passive": true,
            "Name": "Rising Attack",
            "ID": 1005,
            "DefaultLevel": 1,
            "Icon": "../skillicons/Sh-6.png",
            "Levels": {
                "0": {
                    "Description": "While downed, get up while damaging surrounding enemies",
                    "Effect": "",
                    "RequiredLevel": 0,
                    "RequiredSP": 0
                },
                "1": {
                    "Effect": "Stamina Cost: 30\nInvincibility Duration: 1 seconds",
                    "RequiredLevel": 0,
                    "RequiredSP": 0
                },
                "2": {
                    "Effect": "Stamina Cost: 20\nInvincibility Duration: 1 seconds",
                    "RequiredLevel": 18,
                    "RequiredSP": 1
                },
                "3": {
                    "Effect": "Stamina Cost: 20\nInvincibility Duration: 3 seconds",
                    "RequiredLevel": 36,
                    "RequiredSP": 2
                }
            }
        },
        "DashAttack": {
            "Passive": true,
            "Name": "Dash Attack",
            "DefaultLevel": 1,
            "ID": 1008,
            "Icon": "../skillicons/Sh-7.png",
            "Levels": {
                "0": {
                    "Description": "Perform an attack while dashing. Different character does different attacks. ",
                    "Effect": "",
                    "RequiredLevel": 0,
                    "RequiredSP": 0
                },
                "1": {
                    "Effect": "Damage: 115%\nSA Damage: 38%",
                    "RequiredLevel": 0,
                    "RequiredSP": 0
                }
            }
        },
        "SpecialDodge": {
            "Passive": true,
            "Name": "Special Dodge",
            "ID": 1007,
            "Icon": "../skillicons/Sh-8.png",
            "Levels": {
                "0": {
                    "Description": "Swiftly dodge as an enemy attacks you. Negate Damage during the special dodge",
                    "Effect": "",
                    "RequiredLevel": 0,
                    "RequiredSP": 0
                },
                "1": {
                    "Effect": "Stamina Cost: 40\nCooldown: 60 seconds",
                    "RequiredLevel": 4,
                    "RequiredSP": 1
                },
                "2": {
                    "Effect": "Stamina Cost: 40\nCooldown: 50 seconds",
                    "RequiredLevel": 21,
                    "RequiredSP": 1
                },
                "3": {
                    "Effect": "Stamina Cost: 40\nCooldown: 40 seconds",
                    "RequiredLevel": 38,
                    "RequiredSP": 2
                }
            }
        },
        "SpecialDashAttack": {
            "Passive": true,
            "Name": "Special Dash Attack",
            "ID": 1010,
            "Icon": "../skillicons/Sh-9.png",
            "Levels": {
                "0": {
                    "Description": "Performs a special attack while dashing. Different characters do different special attacks",
                    "Effect": "",
                    "RequiredLevel": 0,
                    "RequiredSP": 0
                },
                "1": {
                    "Effect": "Damage: 206%\nSA Damage: 92%\nCooldown: 5 seconds",
                    "RequiredLevel": 13,
                    "RequiredSP": 1
                }
            }
        },
        "StaminaMastery": {
            "Passive": true,
            "Name": "Stamina Mastery",
            "ID": 1009,
            "Icon": "../skillicons/Sh-10.png",
            "Levels": {
                "0": {
                    "Description": "Increases stamina recovery rate",
                    "Effect": "",
                    "RequiredLevel": 0,
                    "RequiredSP": 0
                },
                "1": {
                    "Effect": "Stamina Recovery Rate: +10%",
                    "RequiredLevel": 10,
                    "RequiredSP": 1
                },
                "2": {
                    "Effect": "Stamina Recovery Rate: +20%",
                    "RequiredLevel": 15,
                    "RequiredSP": 1
                },
                "3": {
                    "Effect": "Stamina Recovery Rate: +30%",
                    "RequiredLevel": 20,
                    "RequiredSP": 2
                },
                "4": {
                    "Effect": "Stamina Recovery Rate: +40%",
                    "RequiredLevel": 25,
                    "RequiredSP": 2
                },
                "5": {
                    "Effect": "Stamina Recovery Rate: +50%",
                    "RequiredLevel": 30,
                    "RequiredSP": 3
                }
            }
        },
        "RampagingMadness": {
            "Passive": true,
            "Name": "Rampaging Madness",
            "ID": 1013,
            "Icon": "../skillicons/Icon_Mcythe_Skill_SGPassive2.png",
            "Levels": {
                "0": {
                    "Description": "Every 1 minute while HP is under 50%, decrease SG consumption, increase critical attack power, increase defense penetration for 10 seconds.",
                    "Effect": "",
                    "RequiredLevel": 0,
                    "RequiredSP": 0
                },
                "1": {
                    "Effect": "SG consumption decrease 10%.\nCritical attack power increase 800.\nDefense penetration increase 10%.",
                    "RequiredLevel": 57,
                    "RequiredSP": 1
                },
                "2": {
                    "Effect": "SG consumption decrease 20%.\nCritical attack power increase 1600.\nDefense penetration increase 20%.",
                    "RequiredLevel": 58,
                    "RequiredSP": 1
                },
                "3": {
                    "Effect": "SG consumption decrease 30%.\nCritical attack power increase 2500.\nDefense penetration increase 30%.",
                    "RequiredLevel": 59,
                    "RequiredSP": 2
                }
            }
        },
        "IntensifyingMadness": {
            "Passive": true,
            "Name": "Intensifying Madness",
            "ID": 1011,
            "Icon": "../skillicons/LP1-2.png",
            "Levels": {
                "0": {
                    "Description": "Increase Critical Damage",
                    "Effect": "",
                    "RequiredLevel": 0,
                    "RequiredSP": 0
                },
                "1": {
                    "Effect": "Critical Damage Increase by 400",
                    "RequiredLevel": 10,
                    "RequiredSP": 1
                },
                "2": {
                    "Effect": "Critical Damage Increase by 800",
                    "RequiredLevel": 20,
                    "RequiredSP": 1
                },
                "3": {
                    "Effect": "Critical Damage Increase by 1300",
                    "RequiredLevel": 30,
                    "RequiredSP": 2
                }
            }
        },
        "MadScythe": {
            "Passive": true,
            "DefaultLevel": 1,
            "ID": 1012,
            "RowSpan": 2,
            "Name": "Mad Scythe",
            "Icon": "../skillicons/LP1-1.png",
            "Levels": {
                "0": {
                    "Description": "Gain SG when hitting an enemy. Passively gain SG in set intervals. Collecting a certain amount of SG will activate Madness Mode",
                    "Effect": "",
                    "RequiredLevel": 0,
                    "RequiredSP": 0
                },
                "1": {
                    "Effect": "Attack Power +5%\nCritical Rate +5%",
                    "RequiredLevel": 10,
                    "RequiredSP": 0
                }
            }
        }
    }
}